﻿Day of Week,Opponent,Season ,Facebook Likes,Special,Wins at MidPoint,Total Wins,Month,Year,Total Tickets Sold
Thursday,NY Rangers,2013.14,"1,533,247",1,20,37,January,Year14,15925
Tuesday,Ottawa Senators,2013.14,"334,334",0,20,37,January,Year14,10594
Saturday,Detroit Red Wings,2013.14,"2,024,190",0,20,37,January,Year14,14624
Tuesday,Calgary Flames,2013.14,"383,577",0,20,37,January,Year14,10142
Saturday,Edmonton Oilers,2013.14,"578,338",0,20,37,January,Year14,11696
Tuesday,LA Kings,2013.14,"967,422",0,20,37,January,Year14,10452
Thursday,Nashville Predators,2013.14,"408,913",0,20,37,January,Year14,7401
Tuesday,Vancouver Canucks,2013.14,"1,030,443",0,20,37,January,Year14,13488
Saturday,Washington Capitals,2013.14,"801,960",0,20,37,January,Year14,16106
Saturday,Tampa Bay Lightning,2013.14,"563,981",0,20,37,January,Year14,12556
Thursday,Colorado Avalanche,2013.14,"761,652",0,20,37,January,Year14,12285
Saturday,Anaheim Ducks,2013.14,"422,757",0,20,37,January,Year14,13490
Saturday,Chicago Blackhawks,2013.14,"2,857,019",0,20,37,January,Year14,17332
Thursday,NY Islanders,2013.14,"303,589",0,20,37,January,Year14,10996
Saturday,Carolina Hurricanes,2013.14,"285,380",0,20,37,January,Year14,11701
Friday,San Jose Sharks,2013.14,"953,027",0,20,37,January,Year14,17024
Tuesday,Edmonton Oilers,2013.14,"578,338",0,20,37,January,Year14,17416
Thursday,Columbus Blue Jackets,2013.14,"317,139",0,20,37,January,Year14,10542
Saturday,Philadelphia Flyers,2013.14,"1,175,904",0,20,37,January,Year14,14881
Tuesday,Calgary Flames,2013.14,"383,577",0,20,37,January,Year14,10230
Thursday,Minnesota Wild,2013.14,"651,569",0,20,37,January,Year14,10075
Saturday,Anaheim Ducks,2013.14,"422,757",0,20,37,January,Year14,13292
Thursday,Vancouver Canucks,2013.14,"1,030,443",0,20,37,January,Year14,12307
Saturday,New Jersey Devils,2013.14,"477,972",0,20,37,January,Year14,14008
Monday,Toronto Maple Leafs,2013.14,"1,376,488",0,20,37,January,Year14,14476
Tuesday,LA Kings,2013.14,"967,422",0,20,37,January,Year14,13685
Thursday,Buffalo Sabres,2013.14,"503,284",0,20,37,January,Year14,13002
Saturday,Pittsburgh Penguins,2013.14,"2,056,194",0,20,37,January,Year14,17362
Tuesday,Dallas Stars,2013.14,"482,726",0,20,37,January,Year14,12256
Friday,Chicago Blackhawks,2013.14,"2,857,019",0,20,37,January,Year14,17525
Sunday,St. Louis Blues,2013.14,"759,635",0,20,37,January,Year14,13959
Tuesday,Vancouver Canucks,2013.14,"1,030,443",0,20,37,January,Year14,13455
Thursday,Montreal Canadiens,2013.14,"1,637,473",0,20,37,January,Year14,15282
Saturday,Calgary Flames,2013.14,"383,577",0,20,37,January,Year14,16375
Thursday,Florida Panthers,2013.14,"197,617",0,20,37,January,Year14,14442
Saturday,Boston Bruins,2013.14,"2,206,160",0,20,37,January,Year14,17468
Saturday,Minnesota Wild,2013.14,"651,569",0,20,37,January,Year14,16691
Tuesday,Winnipeg Jets,2013.14,"393,545",0,20,37,January,Year14,13724
Friday,Edmonton Oilers,2013.14,"578,338",0,20,37,January,Year14,14737
Saturday,San Jose Sharks,2013.14,"953,027",0,20,37,January,Year14,15440
Sunday,Dallas Stars,2013.14,"482,726",1,20,37,January,Year14,15147
Thursday,Winnipeg Jets,2014.15,"393,545",1,16,24,January,Year15,15219
Saturday,LA Kings,2014.15,"967,422",0,16,24,January,Year15,12863
Wednesday,Edmonton Oilers,2014.15,"578,338",0,16,24,January,Year15,10799
Saturday,St. Louis Blues,2014.15,"759,635",0,16,24,January,Year15,11100
Saturday,Florida Panthers,2014.15,"197,617",0,16,24,January,Year15,12420
Tuesday,Toronto Maple Leafs,2014.15,"1,376,488",0,16,24,January,Year15,14238
Saturday,NY Islanders,2014.15,"303,589",0,16,24,January,Year15,14689
Tuesday,Dallas Stars,2014.15,"482,726",0,16,24,January,Year15,11866
Tuesday,Washington Capitals,2014.15,"801,960",0,16,24,January,Year15,11769
Tuesday,Colorado Avalanche,2014.15,"761,652",0,16,24,January,Year15,12163
Saturday,Calgary Flames,2014.15,"383,577",0,16,24,January,Year15,13532
Thursday,LA Kings,2014.15,"967,422",0,16,24,January,Year15,12254
Saturday,Boston Bruins,2014.15,"2,206,160",0,16,24,January,Year15,13114
Thursday,Nashville Predators,2014.15,"408,913",0,16,24,January,Year15,9532
Saturday,Minnesota Wild,2014.15,"651,569",0,16,24,January,Year15,13977
Tuesday,Edmonton Oilers,2014.15,"578,338",0,16,24,January,Year15,12085
Saturday,Anaheim Ducks,2014.15,"422,757",0,16,24,January,Year15,13656
Monday,Philadelphia Flyers,2014.15,"1,175,904",0,16,24,January,Year15,16521
Saturday,Columbus Blue Jackets,2014.15,"317,139",0,16,24,January,Year15,13159
Tuesday,St. Louis Blues,2014.15,"759,635",0,16,24,January,Year15,10876
Thursday,Winnipeg Jets,2014.15,"393,545",0,16,24,January,Year15,11391
Saturday,Ottawa Senators,2014.15,"334,334",0,16,24,January,Year15,14936
Tuesday,San Jose Sharks,2014.15,"953,027",0,16,24,January,Year15,10638
Thursday,Calgary Flames,2014.15,"383,577",0,16,24,January,Year15,12984
Thursday,Carolina Hurricanes,2014.15,"285,380",0,16,24,January,Year15,12653
Saturday,Detroit Red Wings,2014.15,"2,024,190",0,16,24,January,Year15,16506
Friday,San Jose Sharks,2014.15,"953,027",0,16,24,January,Year15,16717
Saturday,NY Rangers,2014.15,"1,533,247",0,16,24,January,Year15,14724
Saturday,Tampa Bay Lightning,2014.15,"563,981",0,16,24,January,Year15,12793
Tuesday,Anaheim Ducks,2014.15,"422,757",0,16,24,January,Year15,11381
Thursday,Vancouver Canucks,2014.15,"1,030,443",0,16,24,January,Year15,12590
Saturday,Montreal Canadiens,2014.15,"1,637,473",0,16,24,January,Year15,14094
Monday,Nashville Predators,2014.15,"408,913",0,16,24,January,Year15,11227
Thursday,Chicago Blackhawks,2014.15,"2,857,019",0,16,24,January,Year15,17537
Saturday,New Jersey Devils,2014.15,"477,972",0,16,24,January,Year15,12425
Thursday,Colorado Avalanche,2014.15,"761,652",0,16,24,January,Year15,11684
Saturday,Pittsburgh Penguins,2014.15,"2,056,194",0,16,24,January,Year15,15585
Sunday,Vancouver Canucks,2014.15,"1,030,443",0,16,24,January,Year15,12103
Monday,Buffalo Sabres,2014.15,"503,284",0,16,24,January,Year15,13612
Saturday,San Jose Sharks,2014.15,"953,027",0,16,24,January,Year15,14752
Saturday,Anaheim Ducks,2014.15,"422,757",1,16,24,January,Year15,15733
Saturday,Pittsburgh Penguins,2015.16,"2,056,194",1,21,35,January,Year16,15905
Thursday,Minnesota Wild,2015.16,"651,569",0,21,35,January,Year16,12029
Saturday,Boston Bruins,2015.16,"2,206,160",0,21,35,January,Year16,13419
Friday,Vancouver Canucks,2015.16,"1,030,443",0,21,35,January,Year16,12166
Thursday,Colorado Avalanche,2015.16,"761,652",0,21,35,January,Year16,10270
Saturday,NY Rangers,2015.16,"1,533,247",0,21,35,January,Year16,13029
Thursday,Edmonton Oilers,2015.16,"578,338",0,21,35,January,Year16,15545
Wednesday,Anaheim Ducks,2015.16,"422,757",0,21,35,January,Year16,11578
Friday,Calgary Flames,2015.16,"383,577",0,21,35,January,Year16,11495
Saturday,Ottawa Senators,2015.16,"334,334",0,21,35,January,Year16,12727
Friday,Minnesota Wild,2015.16,"651,569",0,21,35,January,Year16,14404
Saturday,Carolina Hurricanes,2015.16,"285,380",0,21,35,January,Year16,12668
Thursday,Columbus Blue Jackets,2015.16,"317,139",0,21,35,January,Year16,11120
Saturday,NY Islanders,2015.16,"303,589",0,21,35,January,Year16,11878
Tuesday,Toronto Maple Leafs,2015.16,"1,376,488",0,21,35,January,Year16,12240
Saturday,LA Kings,2015.16,"967,422",0,21,35,January,Year16,15725
Tuesday,Chicago Blackhawks,2015.16,"2,857,019",0,21,35,January,Year16,16860
Thursday,Winnipeg Jets,2015.16,"393,545",0,21,35,January,Year16,14027
Saturday,Nashville Predators,2015.16,"408,913",0,21,35,January,Year16,12345
Tuesday,Edmonton Oilers,2015.16,"578,338",0,21,35,January,Year16,11391
Thursday,Detroit Red Wings,2015.16,"2,024,190",0,21,35,January,Year16,12014
Saturday,New Jersey Devils,2015.16,"477,972",0,21,35,January,Year16,11742
Monday,Buffalo Sabres,2015.16,"503,284",0,21,35,January,Year16,11134
Thursday,San Jose Sharks,2015.16,"953,027",0,21,35,January,Year16,12251
Saturday,LA Kings,2015.16,"967,422",0,21,35,January,Year16,14195
Tuesday,LA Kings,2015.16,"967,422",0,21,35,January,Year16,12261
Thursday,Chicago Blackhawks,2015.16,"2,857,019",0,21,35,January,Year16,16733
Wednesday,Vancouver Canucks,2015.16,"1,030,443",0,21,35,January,Year16,12255
Friday,Calgary Flames,2015.16,"383,577",0,21,35,January,Year16,13643
Monday,Montreal Canadiens,2015.16,"1,637,473",0,21,35,January,Year16,14338
Thursday,Dallas Stars,2015.16,"482,726",0,21,35,January,Year16,11853
Saturday,St. Louis Blues,2015.16,"759,635",0,21,35,January,Year16,15839
Thursday,Anaheim Ducks,2015.16,"422,757",0,21,35,January,Year16,11999
Saturday,Florida Panthers,2015.16,"197,617",0,21,35,January,Year16,14825
Thursday,San Jose Sharks,2015.16,"953,027",0,21,35,January,Year16,13005
Saturday,Tampa Bay Lightning,2015.16,"563,981",0,21,35,January,Year16,14183
Tuesday,Edmonton Oilers,2015.16,"578,338",0,21,35,January,Year16,13408
Thursday,Dallas Stars,2015.16,"482,726",0,21,35,January,Year16,11887
Saturday,Philadelphia Flyers,2015.16,"1,175,904",0,21,35,January,Year16,16002
Monday,Calgary Flames,2015.16,"383,577",0,21,35,January,Year16,14356
Saturday,Washington Capitals,2015.16,"801,960",1,21,35,January,Year16,16970
Saturday,Philadelphia Flyers,2016.17,"1,175,904",1,13,30,January,Year17,17164
Saturday,Colorado Avalanche,2016.17,"761,652",0,13,30,January,Year17,13533
Tuesday,San Jose Sharks,2016.17,"953,027",0,13,30,January,Year17,11046
Thursday,Nashville Predators,2016.17,"408,913",0,13,30,January,Year17,10745
Thursday,Winnipeg Jets,2016.17,"393,545",0,13,30,January,Year17,11185
Saturday,Boston Bruins,2016.17,"2,206,160",0,13,30,January,Year17,16531
Saturday,San Jose Sharks,2016.17,"953,027",0,13,30,January,Year17,13146
Wednesday,Vancouver Canucks,2016.17,"1,030,443",0,13,30,January,Year17,11252
Friday,Edmonton Oilers,2016.17,"578,338",0,13,30,January,Year17,14950
Thursday,LA Kings,2016.17,"967,422",0,13,30,January,Year17,11327
Saturday,Columbus Blue Jackets,2016.17,"317,139",0,13,30,January,Year17,11287
Thursday,Calgary Flames,2016.17,"383,577",0,13,30,January,Year17,10210
Saturday,Nashville Predators,2016.17,"408,913",0,13,30,January,Year17,13808
Monday,Calgary Flames,2016.17,"383,577",0,13,30,January,Year17,12192
Wednesday,Edmonton Oilers,2016.17,"578,338",0,13,30,January,Year17,11378
Friday,Toronto Maple Leafs,2016.17,"1,376,488",0,13,30,January,Year17,14375
Tuesday,Dallas Stars,2016.17,"482,726",0,13,30,January,Year17,14561
Thursday,NY Rangers,2016.17,"1,533,247",0,13,30,January,Year17,15092
Saturday,NY Islanders,2016.17,"303,589",0,13,30,January,Year17,12380
Friday,Winnipeg Jets,2016.17,"393,545",0,13,30,January,Year17,12326
Saturday,Anaheim Ducks,2016.17,"422,757",0,13,30,January,Year17,12017
Saturday,Tampa Bay Lightning,2016.17,"563,981",0,13,30,January,Year17,12173
Monday,Florida Panthers,2016.17,"197,617",0,13,30,January,Year17,10042
Thursday,Vancouver Canucks,2016.17,"1,030,443",0,13,30,January,Year17,11203
Tuesday,LA Kings,2016.17,"967,422",0,13,30,January,Year17,11577
Thursday,Chicago Blackhawks,2016.17,"2,857,019",0,13,30,January,Year17,16626
Thursday,Montreal Canadiens,2016.17,"1,637,473",0,13,30,January,Year17,14101
Saturday,Pittsburgh Penguins,2016.17,"2,056,194",0,13,30,January,Year17,15879
Saturday,San Jose Sharks,2016.17,"953,027",0,13,30,January,Year17,17446
Monday,Anaheim Ducks,2016.17,"422,757",0,13,30,January,Year17,14554
Sunday,Buffalo Sabres,2016.17,"503,284",0,13,30,January,Year17,13447
Sunday,Carolina Hurricanes,2016.17,"285,380",0,13,30,January,Year17,10224
Thursday,Ottawa Senators,2016.17,"334,334",0,13,30,January,Year17,10611
Saturday,New Jersey Devils,2016.17,"477,972",0,13,30,January,Year17,11223
Monday,Colorado Avalanche,2016.17,"761,652",0,13,30,January,Year17,11521
Thursday,Detroit Red Wings,2016.17,"2,024,190",0,13,30,January,Year17,15036
Saturday,St. Louis Blues,2016.17,"759,635",0,13,30,January,Year17,15132
Wednesday,St. Louis Blues,2016.17,"759,635",0,13,30,January,Year17,11377
Friday,Washington Capitals,2016.17,"801,960",0,13,30,January,Year17,14290
Thursday,Vancouver Canucks,2016.17,"1,030,443",0,13,30,January,Year17,11959
Saturday,Minnesota Wild,2016.17,"651,569",1,13,30,January,Year17,17490
Saturday,Vegas Golden Knights,2017.18,"350,352",1,9,29,January,Year18,16870
Thursday,Detroit Red Wings,2017.18,"2,024,190",0,9,29,January,Year18,13564
Saturday,Boston Bruins,2017.18,"2,206,160",0,9,29,January,Year18,14794
Thursday,Dallas Stars,2017.18,"482,726",0,9,29,January,Year18,11226
Saturday,Chicago Blackhawks,2017.18,"2,857,019",0,9,29,January,Year18,13777
Thursday,Buffalo Sabres,2017.18,"503,284",0,9,29,January,Year18,11477
Saturday,Carolina Hurricanes,2017.18,"285,380",0,9,29,January,Year18,12019
Saturday,Winnipeg Jets,2017.18,"393,545",0,9,29,January,Year18,16078
Wednesday,San Jose Sharks,2017.18,"953,027",0,9,29,January,Year18,11214
Friday,LA Kings,2017.18,"967,422",0,9,29,January,Year18,12285
Saturday,Vegas Golden Knights,2017.18,"350,352",0,9,29,January,Year18,13226
Saturday,New Jersey Devils,2017.18,"477,972",0,9,29,January,Year18,14338
Thursday,Tampa Bay Lightning,2017.18,"563,981",0,9,29,January,Year18,11591
Saturday,Pittsburgh Penguins,2017.18,"2,056,194",0,9,29,January,Year18,13051
Tuesday,Florida Panthers,2017.18,"197,617",0,9,29,January,Year18,10203
Friday,Washington Capitals,2017.18,"801,960",0,9,29,January,Year18,10940
Saturday,Colorado Avalanche,2017.18,"761,652",0,9,29,January,Year18,11838
Thursday,Toronto Maple Leafs,2017.18,"1,376,488",0,9,29,January,Year18,16804
Thursday,Nashville Predators,2017.18,"408,913",0,9,29,January,Year18,13190
Saturday,NY Rangers,2017.18,"1,533,247",0,9,29,January,Year18,13420
Friday,Edmonton Oilers,2017.18,"578,338",0,9,29,January,Year18,14077
Tuesday,San Jose Sharks,2017.18,"953,027",0,9,29,January,Year18,11961
Monday,NY Islanders,2017.18,"303,589",0,9,29,January,Year18,11707
Thursday,Columbus Blue Jackets,2017.18,"317,139",0,9,29,January,Year18,11272
Thursday,Dallas Stars,2017.18,"482,726",0,9,29,January,Year18,10998
Saturday,Philadelphia Flyers,2017.18,"1,175,904",0,9,29,January,Year18,13004
Monday,Chicago Blackhawks,2017.18,"2,857,019",0,9,29,January,Year18,14357
Thursday,Montreal Canadiens,2017.18,"1,637,473",0,9,29,January,Year18,11489
Saturday,Edmonton Oilers,2017.18,"578,338",0,9,29,January,Year18,16304
Thursday,Calgary Flames,2017.18,"383,577",0,9,29,January,Year18,11902
Saturday,Anaheim Ducks,2017.18,"422,757",0,9,29,January,Year18,11958
Sunday,Vancouver Canucks,2017.18,"1,030,443",0,9,29,January,Year18,10935
Thursday,Minnesota Wild,2017.18,"651,569",0,9,29,January,Year18,10904
Saturday,Ottawa Senators,2017.18,"334,334",0,9,29,January,Year18,10956
Sunday,Vancouver Canucks,2017.18,"1,030,443",0,9,29,January,Year18,11700
Tuesday,LA Kings,2017.18,"967,422",0,9,29,January,Year18,11346
Thursday,Nashville Predators,2017.18,"408,913",0,9,29,January,Year18,14531
Saturday,Minnesota Wild,2017.18,"651,569",0,9,29,January,Year18,13735
Monday,Calgary Flames,2017.18,"383,577",0,9,29,January,Year18,13288
Saturday,St. Louis Blues,2017.18,"759,635",0,9,29,January,Year18,17380
Saturday,Anaheim Ducks,2017.18,"422,757",1,9,29,January,Year18,17382
Saturday,Anaheim Ducks,2018.19,"422,757",1,17,39,January,Year19,16694
Saturday,Buffalo Sabres,2018.19,"503,284",0,17,39,January,Year19,15304
Thursday,Vancouver Canucks,2018.19,"1,030,443",0,17,39,January,Year19,12955
Saturday,Tampa Bay Lightning,2018.19,"563,981",0,17,39,January,Year19,13623
Tuesday,Ottawa Senators,2018.19,"334,334",0,17,39,January,Year19,13988
Friday,Carolina Hurricanes,2018.19,"285,380",0,17,39,January,Year19,10562
Monday,Philadelphia Flyers,2018.19,"1,175,904",0,17,39,January,Year19,13719
Thursday,Nashville Predators,2018.19,"408,913",0,17,39,January,Year19,13315
Saturday,Boston Bruins,2018.19,"2,206,160",0,17,39,January,Year19,16384
Wednesday,Vegas Golden Knights,2018.19,"350,352",0,17,39,January,Year19,14147
Friday,Colorado Avalanche,2018.19,"761,652",0,17,39,January,Year19,12029
Sunday,Calgary Flames,2018.19,"383,577",0,17,39,January,Year19,12819
Saturday,St. Louis Blues,2018.19,"759,635",0,17,39,January,Year19,13451
Thursday,Washington Capitals,2018.19,"801,960",0,17,39,January,Year19,11908
Saturday,San Jose Sharks,2018.19,"953,027",0,17,39,January,Year19,13780
Tuesday,NY Islanders,2018.19,"303,589",0,17,39,January,Year19,11640
Thursday,Montreal Canadiens,2018.19,"1,637,473",0,17,39,January,Year19,11150
Saturday,Colorado Avalanche,2018.19,"761,652",0,17,39,January,Year19,13896
Sunday,Vegas Golden Knights,2018.19,"350,352",0,17,39,January,Year19,16736
Wednesday,Edmonton Oilers,2018.19,"578,338",0,17,39,January,Year19,12586
Friday,New Jersey Devils,2018.19,"477,972",0,17,39,January,Year19,12637
Sunday,NY Rangers,2018.19,"1,533,247",0,17,39,January,Year19,12396
Wednesday,San Jose Sharks,2018.19,"953,027",0,17,39,January,Year19,13342
Friday,Pittsburgh Penguins,2018.19,"2,056,194",0,17,39,January,Year19,14757
Thursday,Columbus Blue Jackets,2018.19,"317,139",0,17,39,January,Year19,15319
Saturday,Dallas Stars,2018.19,"482,726",0,17,39,January,Year19,13418
Thursday,St. Louis Blues,2018.19,"759,635",0,17,39,January,Year19,12552
Saturday,Toronto Maple Leafs,2018.19,"1,376,488",0,17,39,January,Year19,16453
Sunday,Winnipeg Jets,2018.19,"393,545",0,17,39,January,Year19,16583
Tuesday,Florida Panthers,2018.19,"197,617",0,17,39,January,Year19,11912
Thursday,Vancouver Canucks,2018.19,"1,030,443",0,17,39,January,Year19,12767
Saturday,Detroit Red Wings,2018.19,"2,024,190",0,17,39,January,Year19,15541
Tuesday,Anaheim Ducks,2018.19,"422,757",0,17,39,January,Year19,11305
Thursday,Calgary Flames,2018.19,"383,577",0,17,39,January,Year19,13341
Saturday,LA Kings,2018.19,"967,422",0,17,39,January,Year19,14978
Thursday,Anaheim Ducks,2018.19,"422,757",0,17,39,January,Year19,14202
Saturday,Edmonton Oilers,2018.19,"578,338",0,17,39,January,Year19,15016
Tuesday,Chicago Blackhawks,2018.19,"2,857,019",0,17,39,January,Year19,15054
Sunday,Minnesota Wild,2018.19,"651,569",0,17,39,January,Year19,17430
Tuesday,LA Kings,2018.19,"967,422",0,17,39,January,Year19,14685
Saturday,Winnipeg Jets,2018.19,"393,545",0,17,39,January,Year19,16631
